%YAML 1.1
%TAG !u! tag:unity3d.com,2011:
--- !u!74 &7400000
AnimationClip:
  m_ObjectHideFlags: 0
  m_PrefabParentObject: {fileID: 0}
  m_PrefabInternal: {fileID: 0}
  m_Name: shoot
  serializedVersion: 6
  m_Legacy: 0
  m_Compressed: 0
  m_UseHighQualityCurve: 1
  m_RotationCurves: []
  m_CompressedRotationCurves: []
  m_EulerCurves: []
  m_PositionCurves: []
  m_ScaleCurves: []
  m_FloatCurves: []
  m_PPtrCurves:
  - curve:
    - time: 0
      value: {fileID: 21300000, guid: 8d448a0f3f39b9f42b94274f31f59bda, type: 3}
    - time: 0.083333336
      value: {fileID: 21300000, guid: dd4feee6d840a5246846441923a47908, type: 3}
    - time: 0.16666667
      value: {fileID: 21300000, guid: 9a39dae4cc8f9e84f871fb4a9c314bc0, type: 3}
    - time: 0.25
      value: {fileID: 21300000, guid: 39f434556bb51ab43bc517bc8fd241fa, type: 3}
    - time: 0.33333334
      value: {fileID: 21300000, guid: ba086856d2cc8ad4585e748e90f3aa19, type: 3}
    - time: 0.41666666
      value: {fileID: 21300000, guid: 348dc320302c49c42a216733786bee9e, type: 3}
    - time: 0.5
      value: {fileID: 21300000, guid: 4ce5231d6e82cc8478af38bbcf932338, type: 3}
    - time: 0.5833333
      value: {fileID: 21300000, guid: 6a9a1d85c9f468f4f8ecc15aa6c55daa, type: 3}
    - time: 0.6666667
      value: {fileID: 21300000, guid: c567ed4f9e59f0b4f81f442aeac497bb, type: 3}
    attribute: m_Sprite
    path: 
    classID: 212
    script: {fileID: 0}
  m_SampleRate: 12
  m_WrapMode: 0
  m_Bounds:
    m_Center: {x: 0, y: 0, z: 0}
    m_Extent: {x: 0, y: 0, z: 0}
  m_ClipBindingConstant:
    genericBindings:
    - path: 0
      attribute: 0
      script: {fileID: 0}
      classID: 212
      customType: 23
      isPPtrCurve: 1
    pptrCurveMapping:
    - {fileID: 21300000, guid: 8d448a0f3f39b9f42b94274f31f59bda, type: 3}
    - {fileID: 21300000, guid: dd4feee6d840a5246846441923a47908, type: 3}
    - {fileID: 21300000, guid: 9a39dae4cc8f9e84f871fb4a9c314bc0, type: 3}
    - {fileID: 21300000, guid: 39f434556bb51ab43bc517bc8fd241fa, type: 3}
    - {fileID: 21300000, guid: ba086856d2cc8ad4585e748e90f3aa19, type: 3}
    - {fileID: 21300000, guid: 348dc320302c49c42a216733786bee9e, type: 3}
    - {fileID: 21300000, guid: 4ce5231d6e82cc8478af38bbcf932338, type: 3}
    - {fileID: 21300000, guid: 6a9a1d85c9f468f4f8ecc15aa6c55daa, type: 3}
    - {fileID: 21300000, guid: c567ed4f9e59f0b4f81f442aeac497bb, type: 3}
  m_AnimationClipSettings:
    serializedVersion: 2
    m_AdditiveReferencePoseClip: {fileID: 0}
    m_AdditiveReferencePoseTime: 0
    m_StartTime: 0
    m_StopTime: 0.75
    m_OrientationOffsetY: 0
    m_Level: 0
    m_CycleOffset: 0
    m_HasAdditiveReferencePose: 0
    m_LoopTime: 1
    m_LoopBlend: 0
    m_LoopBlendOrientation: 0
    m_LoopBlendPositionY: 0
    m_LoopBlendPositionXZ: 0
    m_KeepOriginalOrientation: 0
    m_KeepOriginalPositionY: 1
    m_KeepOriginalPositionXZ: 0
    m_HeightFromFeet: 0
    m_Mirror: 0
  m_EditorCurves: []
  m_EulerEditorCurves: []
  m_HasGenericRootTransform: 0
  m_HasMotionFloatCurves: 0
  m_GenerateMotionCurves: 0
  m_Events: []
