Geisha:26,51,74
Archer:10,39,63,86
Dragon:5,30,42,76
SmallBeer:1,7,10,13,16,22,28,31,35,40,44,48,52,55,58,61,64,67,70,73,76,79,82,85
MediumBeer:1,5,10,14,18,26,30,38,44,50,54,59,63,66,70,74,78,82
LargeBeer:1,3,8,13,18,23,28,33,38,43,48,53,58,63,68,73,75,78,83,85

