%YAML 1.1
%TAG !u! tag:unity3d.com,2011:
--- !u!78 &1
TagManager:
  serializedVersion: 2
  tags:
  - GameManager
  - Sign
  layers:
  - Default
  - TransparentFX
  - Ignore Raycast
  - 
  - Water
  - UI
  - 
  - 
  - Foreground
  - Star
  - Borders
  - videoRecord
  - UI Frozen
  - Frozen
  - 
  - 
  - 
  - 
  - 
  - 
  - 
  - 
  - 
  - 
  - 
  - 
  - 
  - 
  - 
  - 
  - 
  - 
  m_SortingLayers:
  - name: Default
    uniqueID: 0
    locked: 0
  - name: FrontCity
    uniqueID: 1792999949
    locked: 0
  - name: GeishaArcher
    uniqueID: 4054100739
    locked: 0
  - name: Foreground
    uniqueID: 2864377719
    locked: 0
